resultados/passo4/ensaio2_uart/trace_uno.vcd
$timescale 1ns $end
$var wire 1 a trigger_d9 $end
$var wire 1 b step_j4 $end
$enddefinitions $end
#0
1a
0b
#302650625
0a
#312667563
1b
#312667688
0b
#322667563
1b
#322667688
0b
#332667563
1b
#332667688
0b
#342667625
1b
#342667750
0b
#352668250
1b
#352668375
0b
#362667625
1b
#362667750
0b
#372667563
1b
#372667688
0b
#382667875
1b
#382668000
0b
#392667750
1b
#392667875
0b
#402667688
1b
#402667813
0b
#412667813
1b
#412667938
0b
#422667563
1b
#422667688
0b
#432667563
1b
#432667688
0b
#442667625
1b
#442667750
0b
#452667625
1b
#452667750
0b
#462667563
1b
#462667688
0b
#472667625
1b
#472667750
0b
#482667563
1b
#482667688
0b
#492667625
1b
#492667750
0b
#502667938
1b
#502668063
0b
